<?xml version="1.0" encoding="UTF-8" standalone="no"?>
<!-- Created with Inkscape (http://www.inkscape.org/) -->

<svg
   xmlns:dc="http://purl.org/dc/elements/1.1/"
   xmlns:cc="http://creativecommons.org/ns#"
   xmlns:rdf="http://www.w3.org/1999/02/22-rdf-syntax-ns#"
   xmlns:svg="http://www.w3.org/2000/svg"
   xmlns="http://www.w3.org/2000/svg"
   xmlns:sodipodi="http://sodipodi.sourceforge.net/DTD/sodipodi-0.dtd"
   xmlns:inkscape="http://www.inkscape.org/namespaces/inkscape"
   width="5cm"
   height="2.2cm"
   viewBox="0 0 50 21.999998"
   version="1.1"
   id="svg8"
   inkscape:version="0.92.3 (2405546, 2018-03-11)"
   sodipodi:docname="impala-logo-orange.svg">
  <defs
     id="defs2">
    <inkscape:path-effect
       effect="bspline"
       id="path-effect868"
       is_visible="true"
       weight="33.333333"
       steps="2"
       helper_size="0"
       apply_no_weight="true"
       apply_with_weight="true"
       only_selected="false" />
    <inkscape:path-effect
       effect="bspline"
       id="path-effect868-7"
       is_visible="true"
       weight="33.333333"
       steps="2"
       helper_size="0"
       apply_no_weight="true"
       apply_with_weight="true"
       only_selected="false" />
    <inkscape:path-effect
       effect="bspline"
       id="path-effect868-3"
       is_visible="true"
       weight="33.333333"
       steps="2"
       helper_size="0"
       apply_no_weight="true"
       apply_with_weight="true"
       only_selected="false" />
    <inkscape:path-effect
       effect="bspline"
       id="path-effect868-7-5"
       is_visible="true"
       weight="33.333333"
       steps="2"
       helper_size="0"
       apply_no_weight="true"
       apply_with_weight="true"
       only_selected="false" />
    <clipPath
       clipPathUnits="userSpaceOnUse"
       id="clipPath983">
      <rect
         style="fill:#ff6f00;fill-opacity:0.9;stroke:#a10000;stroke-width:0;stroke-miterlimit:4;stroke-dasharray:none;stroke-opacity:1"
         id="rect985"
         width="17.008928"
         height="6.9822783"
         x="100.44717"
         y="157.15909" />
    </clipPath>
    <clipPath
       clipPathUnits="userSpaceOnUse"
       id="clipPath989">
      <rect
         style="fill:#ff6f00;fill-opacity:0.9;stroke:#a10000;stroke-width:0;stroke-miterlimit:4;stroke-dasharray:none;stroke-opacity:1"
         id="rect991"
         width="30.735991"
         height="12.22758"
         x="110.78322"
         y="145.72543" />
    </clipPath>
  </defs>
  <sodipodi:namedview
     id="base"
     pagecolor="#ffffff"
     bordercolor="#666666"
     borderopacity="1.0"
     inkscape:pageopacity="0.0"
     inkscape:pageshadow="2"
     inkscape:zoom="2.8"
     inkscape:cx="159.70654"
     inkscape:cy="65.905029"
     inkscape:document-units="mm"
     inkscape:current-layer="layer1"
     showgrid="false"
     showguides="true"
     inkscape:guide-bbox="true"
     inkscape:snap-bbox="true"
     inkscape:snap-bbox-midpoints="true"
     inkscape:snap-nodes="true"
     inkscape:snap-global="false"
     inkscape:window-width="1920"
     inkscape:window-height="1025"
     inkscape:window-x="0"
     inkscape:window-y="0"
     inkscape:window-maximized="1"
     inkscape:measure-start="295.722,476.539"
     inkscape:measure-end="0,0"
     units="cm"
     inkscape:snap-page="true"
     inkscape:snap-object-midpoints="true"
     inkscape:snap-center="true">
    <sodipodi:guide
       position="66.385876,107.19837"
       orientation="1,0"
       id="guide1505"
       inkscape:locked="false" />
    <sodipodi:guide
       position="24.190475,11.622767"
       orientation="1,0"
       id="guide859"
       inkscape:locked="false" />
  </sodipodi:namedview>
  <metadata
     id="metadata5">
    <rdf:RDF>
      <cc:Work
         rdf:about="">
        <dc:format>image/svg+xml</dc:format>
        <dc:type
           rdf:resource="http://purl.org/dc/dcmitype/StillImage" />
        <dc:title></dc:title>
      </cc:Work>
    </rdf:RDF>
  </metadata>
  <g
     inkscape:label="Layer 1"
     inkscape:groupmode="layer"
     id="layer1"
     transform="translate(0,-275.00002)">
    <g
       id="g857"
       transform="translate(0.7997002,2.5695853)"
       style="fill:#ff9600;fill-opacity:1">
      <path
         inkscape:export-ydpi="900.02911"
         inkscape:export-xdpi="900.02911"
         inkscape:export-filename="/home/kiks/Desktop/impala-logo-white.png"
         transform="translate(-100.44717,117.84093)"
         clip-path="url(#clipPath983)"
         inkscape:connector-curvature="0"
         id="path826-6"
         d="m 108.85269,171.0519 c 0,-0.14552 0.12609,-0.26458 0.2802,-0.26458 0.15411,0 0.20661,0.11906 0.11668,0.26458 -0.0899,0.14552 -0.21603,0.26458 -0.2802,0.26458 -0.0642,0 -0.11668,-0.11906 -0.11668,-0.26458 z m -0.0882,-2.55764 c -0.30444,-0.30444 -0.19268,-0.61736 0.22049,-0.61736 0.21828,0 0.39687,0.17859 0.39687,0.39687 0,0.41317 -0.31292,0.52493 -0.61736,0.22049 z m -0.44337,-5.5147 c -0.33252,-0.35396 -1.03356,-0.78614 -1.55786,-0.9604 l -0.95328,-0.31686 1.05833,-0.47763 c 1.32463,-0.59783 2.97486,-0.62025 4.3764,-0.0595 l 1.07981,0.43205 -1.04182,0.46644 c -0.573,0.25654 -1.12267,0.59725 -1.22148,0.75714 -0.46161,0.74689 -1.13024,0.80788 -1.7401,0.15872 z m -5.2019,-1.65697 c -0.90197,-0.43101 -1.79565,-1.79336 -1.63886,-2.49833 0.17452,-0.78469 1.72238,0.11415 2.21119,1.28403 0.5905,1.41326 0.45329,1.70438 -0.57233,1.2143 z m 10.76055,-0.21826 c 0,-0.77267 1.53224,-2.48785 2.2225,-2.48785 0.98585,0 -0.13763,2.33181 -1.36261,2.82812 -0.83913,0.33999 -0.85989,0.33177 -0.85989,-0.34027 z"
         style="fill:#ff9600;fill-opacity:1;stroke-width:0.26458332" />
      <g
         style="fill:#ff9600;fill-opacity:1"
         inkscape:export-ydpi="900.02911"
         inkscape:export-xdpi="900.02911"
         inkscape:export-filename="/home/kiks/Desktop/impala-logo-white.png"
         transform="translate(-100.38168,116.5561)"
         id="g967">
        <ellipse
           style="fill:#ff9600;fill-opacity:1;stroke:#a10000;stroke-width:0;stroke-miterlimit:4;stroke-dasharray:none;stroke-opacity:1"
           id="path828-2"
           cx="106.4382"
           cy="165.4393"
           rx="0.63783485"
           ry="0.68508184" />
        <ellipse
           style="fill:#ff9600;fill-opacity:1;stroke:#a10000;stroke-width:0;stroke-miterlimit:4;stroke-dasharray:none;stroke-opacity:1"
           id="path828-3-9"
           cx="-111.89525"
           cy="-165.41566"
           rx="0.63783485"
           ry="0.68508184"
           transform="scale(-1)" />
      </g>
      <g
         transform="translate(-57.639685,95.640605)"
         style="fill:#ff9600;fill-opacity:1"
         inkscape:export-ydpi="900.02911"
         inkscape:export-xdpi="900.02911"
         inkscape:export-filename="/home/kiks/Desktop/impala-logo-white.png"
         id="g1483">
        <path
           style="fill:#ff9600;fill-opacity:1;stroke:#000000;stroke-width:0;stroke-linecap:butt;stroke-linejoin:miter;stroke-miterlimit:4;stroke-dasharray:none;stroke-opacity:1"
           d="m 66.385876,187.87023 h -1.1665 c 0,0 -0.22428,0.19258 -0.21852,0.40262 0.0103,0.37632 0.29638,0.95987 0.60532,1.1845 0.30895,0.22462 0.7797,0.34428 0.7797,0.34428 z"
           id="path845-1"
           inkscape:connector-curvature="0"
           sodipodi:nodetypes="ccssccc" />
      </g>
      <path
         inkscape:export-ydpi="900.02911"
         inkscape:export-xdpi="900.02911"
         inkscape:export-filename="/home/kiks/Desktop/impala-logo-white.png"
         sodipodi:nodetypes="ccssccc"
         inkscape:connector-curvature="0"
         id="path845-6-2"
         d="m 8.7461905,283.51083 h 1.1665 c 0,0 0.2242795,0.19258 0.2185095,0.40262 -0.0103,0.37632 -0.2963695,0.95987 -0.6053195,1.1845 -0.30895,0.22462 -0.77969,0.34428 -0.77969,0.34428 z"
         style="fill:#ff9600;fill-opacity:1;stroke:#000000;stroke-width:0;stroke-linecap:butt;stroke-linejoin:miter;stroke-miterlimit:4;stroke-dasharray:none;stroke-opacity:1" />
      <g
         style="fill:#ff9600;fill-opacity:1"
         inkscape:export-ydpi="900.02911"
         inkscape:export-xdpi="900.02911"
         inkscape:export-filename="/home/kiks/Desktop/impala-logo-white.png"
         transform="translate(-100.34321,116.53962)"
         id="g977">
        <g
           transform="translate(11.684296,13.842)"
           id="g896-7"
           style="fill:#ff9600;fill-opacity:1">
          <path
             sodipodi:nodetypes="cccccccscccc"
             inkscape:original-d="m 97.464699,155.97944 c -0.04155,0.0149 -0.08314,0.0301 -0.125281,0.0455 -0.144815,0.27894 -0.289083,0.55659 -0.433994,0.83522 -0.218774,0.0824 -0.437516,0.16493 -0.657201,0.24799 -0.02147,0.0172 -0.04317,0.0347 -0.06509,0.0524 0.02468,0.0225 0.04915,0.0453 0.07337,0.0684 0.242239,0.14269 0.483547,0.28524 0.724931,0.42826 0.175314,0.22772 0.350293,0.45561 0.525137,0.68393 -0.0137,0.0354 -0.02765,0.071 -0.04187,0.10687 2.65e-4,-0.82276 2.65e-4,-1.64421 0,-2.46866 2.65e-4,-2.5e-4 2.65e-4,-2.4e-4 0,4e-5 z"
             inkscape:path-effect="#path-effect868-3"
             inkscape:connector-curvature="0"
             id="path866-0"
             d="m 97.443955,155.98697 c -0.02075,0.008 -0.06236,0.0226 -0.155909,0.16976 -0.09354,0.1471 -0.237814,0.42475 -0.41958,0.60536 -0.181766,0.1806 -0.400504,0.26314 -0.521088,0.31323 -0.120584,0.0501 -0.142299,0.0676 -0.141059,0.0878 0.0012,0.0202 0.0257,0.043 0.158973,0.12594 0.133268,0.0829 0.374574,0.22546 0.582869,0.41079 0.208294,0.18532 0.383273,0.41321 0.463918,0.54493 0.08064,0.13172 0.0667,0.16732 0.05966,-0.22609 -0.007,-0.39342 -0.007,-1.21487 -0.007,-1.6271 0,-0.41222 0,-0.41222 0,-0.4122 0,2e-5 -2e-6,7e-5 -0.02075,0.008 z"
             style="fill:#ff9600;fill-opacity:1;stroke:#000000;stroke-width:0;stroke-linecap:butt;stroke-linejoin:miter;stroke-miterlimit:4;stroke-dasharray:none;stroke-opacity:1" />
          <g
             id="g891-9"
             style="fill:#ff9600;fill-opacity:1">
            <path
               style="fill:#ff9600;fill-opacity:1;stroke:#000000;stroke-width:0;stroke-linecap:butt;stroke-linejoin:miter;stroke-miterlimit:4;stroke-dasharray:none;stroke-opacity:1"
               d="m 97.449531,155.97935 c 0.02631,3.3e-4 0.07903,10e-4 0.173335,0.14975 0.09431,0.14875 0.225961,0.43766 0.402156,0.62559 0.176195,0.18793 0.394933,0.27047 0.515517,0.32056 0.120584,0.0501 0.142299,0.0676 0.141059,0.0878 -0.0012,0.0202 -0.0257,0.043 -0.158973,0.12594 -0.133268,0.0829 -0.374574,0.22546 -0.566492,0.40971 -0.191918,0.18425 -0.33301,0.40817 -0.414194,0.54098 -0.08119,0.13281 -0.09994,0.1705 -0.10933,-0.22199 -0.0094,-0.39249 -0.0094,-1.21394 -0.0094,-1.62616 0,-0.41223 0,-0.41223 0,-0.41221 0,2e-5 4e-6,-2.8e-4 0.02632,5e-5 z"
               id="path866-5-3"
               inkscape:connector-curvature="0"
               inkscape:path-effect="#path-effect868-7-5"
               inkscape:original-d="m 97.423218,155.97902 c 0.05263,2.8e-4 0.105348,8.3e-4 0.15869,0.002 0.135583,0.29669 0.267236,0.5856 0.400585,0.87907 0.218774,0.0824 0.437516,0.16493 0.657201,0.24799 0.02147,0.0172 0.04317,0.0347 0.06509,0.0524 -0.02468,0.0225 -0.04915,0.0453 -0.07337,0.0684 -0.242239,0.14269 -0.483547,0.28524 -0.724931,0.42826 -0.142199,0.22583 -0.283291,0.44975 -0.426999,0.67767 -0.01864,0.0377 -0.03739,0.0754 -0.05627,0.11313 -2.64e-4,-0.82276 -2.64e-4,-1.64421 0,-2.46866 -2.64e-4,-2.5e-4 -2.64e-4,-2.4e-4 0,4e-5 z"
               sodipodi:nodetypes="cccccccccccc" />
          </g>
        </g>
      </g>
      <flowRoot
         inkscape:export-ydpi="900.02911"
         inkscape:export-xdpi="900.02911"
         inkscape:export-filename="/home/kiks/Desktop/impala-logo-white.png"
         transform="matrix(0.26458333,0,0,0.26458333,-59.109668,112.94631)"
         style="font-style:normal;font-weight:normal;font-size:40px;line-height:1.25;font-family:sans-serif;letter-spacing:0px;word-spacing:0px;fill:#ff9600;fill-opacity:1;stroke:#ededff;stroke-width:3.64724422;stroke-miterlimit:4;stroke-dasharray:none;stroke-opacity:0"
         id="flowRoot993"
         xml:space="preserve"><flowRegion
           style="fill:#ff9600;fill-opacity:1;stroke:#ededff;stroke-width:3.64724422;stroke-miterlimit:4;stroke-dasharray:none;stroke-opacity:0"
           id="flowRegion995"><rect
             style="fill:#ff9600;fill-opacity:1;stroke:#ededff;stroke-width:3.64724422;stroke-miterlimit:4;stroke-dasharray:none;stroke-opacity:0"
             y="626.02972"
             x="283.60034"
             height="120.46072"
             width="253.54831"
             id="rect997" /></flowRegion><flowPara
           style="font-style:normal;font-variant:normal;font-weight:300;font-stretch:normal;font-size:37.33333206px;font-family:'Centra No2 TRIAL';-inkscape-font-specification:'Centra No2 TRIAL, Light';font-variant-ligatures:normal;font-variant-caps:normal;font-variant-numeric:normal;font-feature-settings:normal;text-align:start;writing-mode:lr-tb;text-anchor:start;fill:#ff9600;fill-opacity:1;stroke:#ededff;stroke-width:3.64724422;stroke-miterlimit:4;stroke-dasharray:none;stroke-opacity:0"
           id="flowPara999">impala</flowPara></flowRoot>      <g
         style="fill:#ff9600;fill-opacity:1"
         inkscape:export-ydpi="900.02911"
         inkscape:export-xdpi="900.02911"
         inkscape:export-filename="/home/kiks/Desktop/impala-logo-white.png"
         id="g1483-4"
         transform="matrix(0.29450346,0,0,1.0000003,-9.1655544,95.744217)">
        <path
           style="fill:#ff9600;fill-opacity:1;stroke:#000000;stroke-width:0;stroke-linecap:butt;stroke-linejoin:miter;stroke-miterlimit:4;stroke-dasharray:none;stroke-opacity:1"
           d="m 61.151037,187.76656 h -1.1665 c 0,0 -0.22428,0.19258 -0.21852,0.40262 0.0103,0.37632 0.29636,0.95987 0.60532,1.1845 0.154475,0.11231 0.0043,0.29698 0.240855,0.32544 0.232757,0.028 0.207959,0.0188 0.207959,0.0188 z"
           id="path845-1-1"
           inkscape:connector-curvature="0"
           sodipodi:nodetypes="ccssscc" />
      </g>
    </g>
  </g>
</svg>
